<?xml version="1.0" encoding="UTF-8"?>
<glyph name="exclamdown" format="1">
  <advance width="136"/>
  <unicode hex="00A1"/>
  <outline>
    <component base="exclam" xScale="-1" yScale="-1" xOffset="136" yOffset="600"/>
  </outline>
  <lib>
    <dict>
      <key>com.schriftgestaltung.Glyphs.lastChange</key>
      <string>2019-04-26 20:29:54 +0000</string>
    </dict>
  </lib>
</glyph>
