<?xml version="1.0" encoding="UTF-8"?>
<glyph name="macron" format="1">
  <advance width="250"/>
  <unicode hex="00AF"/>
  <outline>
    <contour>
      <point x="27" y="710" type="line"/>
      <point x="27" y="664" type="line"/>
      <point x="223" y="664" type="line"/>
      <point x="223" y="710" type="line"/>
    </contour>
    <contour>
      <point x="125" y="640" type="move" name="_top"/>
    </contour>
  </outline>
  <lib>
    <dict>
      <key>com.typemytype.robofont.layerData</key>
      <dict>
        <key>background</key>
        <dict>
          <key>anchors</key>
          <array>
          </array>
          <key>components</key>
          <array>
          </array>
          <key>contours</key>
          <array>
            <dict>
              <key>points</key>
              <array>
                <dict>
                  <key>segmentType</key>
                  <string>line</string>
                  <key>smooth</key>
                  <integer>0</integer>
                  <key>x</key>
                  <integer>27</integer>
                  <key>y</key>
                  <integer>684</integer>
                </dict>
                <dict>
                  <key>segmentType</key>
                  <string>line</string>
                  <key>smooth</key>
                  <integer>0</integer>
                  <key>x</key>
                  <integer>113</integer>
                  <key>y</key>
                  <integer>684</integer>
                </dict>
                <dict>
                  <key>segmentType</key>
                  <string>line</string>
                  <key>smooth</key>
                  <integer>0</integer>
                  <key>x</key>
                  <integer>113</integer>
                  <key>y</key>
                  <integer>730</integer>
                </dict>
                <dict>
                  <key>segmentType</key>
                  <string>line</string>
                  <key>smooth</key>
                  <integer>0</integer>
                  <key>x</key>
                  <integer>27</integer>
                  <key>y</key>
                  <integer>730</integer>
                </dict>
              </array>
            </dict>
            <dict>
              <key>points</key>
              <array>
                <dict>
                  <key>segmentType</key>
                  <string>line</string>
                  <key>smooth</key>
                  <integer>0</integer>
                  <key>x</key>
                  <integer>137</integer>
                  <key>y</key>
                  <integer>684</integer>
                </dict>
                <dict>
                  <key>segmentType</key>
                  <string>line</string>
                  <key>smooth</key>
                  <integer>0</integer>
                  <key>x</key>
                  <integer>223</integer>
                  <key>y</key>
                  <integer>684</integer>
                </dict>
                <dict>
                  <key>segmentType</key>
                  <string>line</string>
                  <key>smooth</key>
                  <integer>0</integer>
                  <key>x</key>
                  <integer>223</integer>
                  <key>y</key>
                  <integer>730</integer>
                </dict>
                <dict>
                  <key>segmentType</key>
                  <string>line</string>
                  <key>smooth</key>
                  <integer>0</integer>
                  <key>x</key>
                  <integer>137</integer>
                  <key>y</key>
                  <integer>730</integer>
                </dict>
              </array>
            </dict>
          </array>
          <key>lib</key>
          <dict>
          </dict>
          <key>name</key>
          <string>macron</string>
          <key>unicodes</key>
          <array>
          </array>
          <key>width</key>
          <integer>250</integer>
        </dict>
      </dict>
    </dict>
  </lib>
</glyph>
