<?xml version="1.0" encoding="UTF-8"?>
<glyph name="uni0451" format="1">
  <advance width="260"/>
  <unicode hex="0451"/>
  <outline>
    <component base="uni0435"/>
    <component base="dieresis" xOffset="18"/>
  </outline>
  <lib>
    <dict>
      <key>com.schriftgestaltung.Glyphs.lastChange</key>
      <string>2019-04-26 20:37:56 +0000</string>
    </dict>
  </lib>
</glyph>
