<?xml version="1.0" encoding="UTF-8"?>
<glyph name="uni0439.2" format="1">
  <advance width="408"/>
  <outline>
    <contour>
      <point x="196" y="0" type="line"/>
      <point x="312" y="600" type="line"/>
      <point x="339" y="600" type="line"/>
      <point x="224" y="0" type="line"/>
    </contour>
    <contour>
      <point x="315" y="477" type="line"/>
      <point x="323" y="600" type="line"/>
      <point x="383" y="600" type="line"/>
      <point x="383" y="0" type="line"/>
      <point x="312" y="0" type="line"/>
      <point x="318" y="246" type="line"/>
      <point x="332" y="477" type="line"/>
    </contour>
    <contour>
      <point x="68" y="0" type="line"/>
      <point x="184" y="600" type="line"/>
      <point x="211" y="600" type="line"/>
      <point x="96" y="0" type="line"/>
    </contour>
    <contour>
      <point x="93" y="123" type="line"/>
      <point x="85" y="0" type="line"/>
      <point x="25" y="0" type="line"/>
      <point x="25" y="600" type="line"/>
      <point x="97" y="600" type="line"/>
      <point x="90" y="354" type="line"/>
      <point x="76" y="123" type="line"/>
    </contour>
    <contour>
      <point x="195" y="600" type="line"/>
      <point x="238" y="600" type="line"/>
      <point x="204" y="123" type="line"/>
      <point x="221" y="123" type="line"/>
      <point x="213" y="0" type="line"/>
      <point x="171" y="0" type="line"/>
      <point x="204" y="477" type="line"/>
      <point x="187" y="477" type="line"/>
    </contour>
    <contour>
      <point x="323" y="730" type="line"/>
      <point x="251" y="730" type="line"/>
      <point x="253" y="720" type="line" smooth="yes"/>
      <point x="262" y="676"/>
      <point x="246" y="650"/>
      <point x="203" y="650" type="curve"/>
      <point x="160" y="650"/>
      <point x="144" y="676"/>
      <point x="153" y="720" type="curve"/>
      <point x="155" y="730" type="line"/>
      <point x="83" y="730" type="line"/>
      <point x="83" y="720" type="line" smooth="yes"/>
      <point x="83" y="671"/>
      <point x="131" y="637"/>
      <point x="203" y="636" type="curve"/>
      <point x="275" y="635"/>
      <point x="323" y="669"/>
      <point x="323" y="720" type="curve"/>
    </contour>
  </outline>
  <lib>
    <dict>
      <key>com.schriftgestaltung.Glyphs.lastChange</key>
      <string>2019-07-03 10:00:05 +0000</string>
      <key>com.typemytype.robofont.layerData</key>
      <dict>
        <key>background</key>
        <dict>
          <key>anchors</key>
          <array>
          </array>
          <key>components</key>
          <array>
            <dict>
              <key>baseGlyph</key>
              <string>N</string>
              <key>transformation</key>
              <array>
                <integer>1</integer>
                <integer>0</integer>
                <integer>0</integer>
                <integer>1</integer>
                <integer>0</integer>
                <integer>0</integer>
              </array>
            </dict>
          </array>
          <key>contours</key>
          <array>
          </array>
          <key>lib</key>
          <dict>
            <key>com.typemytype.robofont.layerData</key>
            <dict>
            </dict>
          </dict>
          <key>name</key>
          <string>n.3</string>
          <key>unicodes</key>
          <array>
          </array>
          <key>width</key>
          <integer>408</integer>
        </dict>
      </dict>
      <key>public.markColor</key>
      <string>0,0,1,1</string>
    </dict>
  </lib>
</glyph>
