<?xml version="1.0" encoding="UTF-8"?>
<glyph name="uni041C" format="1">
  <advance width="357"/>
  <unicode hex="041C"/>
  <outline>
    <component base="M"/>
  </outline>
  <lib>
    <dict>
      <key>com.schriftgestaltung.Glyphs.lastChange</key>
      <string>2019-07-03 09:58:50 +0000</string>
    </dict>
  </lib>
</glyph>
